%YAML 1.1
%TAG !u! tag:unity3d.com,2011:
--- !u!114 &11400000
MonoBehaviour:
  m_ObjectHideFlags: 0
  m_CorrespondingSourceObject: {fileID: 0}
  m_PrefabInstance: {fileID: 0}
  m_PrefabAsset: {fileID: 0}
  m_GameObject: {fileID: 0}
  m_Enabled: 1
  m_EditorHideFlags: 0
  m_Script: {fileID: 11500000, guid: ef9cb1f5a1562754fb788044371626d0, type: 3}
  m_Name: SP2_W1_S1
  m_EditorClassIdentifier: 
  enemiesPos:
  - enemy: {fileID: 8694673222302402802, guid: 37d945183ff5b884db4c9448663a7c99, type: 3}
    enemyTransform: {fileID: 8244082544159324735, guid: adb27ca2e0ac01f49a5526d194beb129,
      type: 3}
  - enemy: {fileID: 8694673222302402802, guid: 37d945183ff5b884db4c9448663a7c99, type: 3}
    enemyTransform: {fileID: 6185646007914412612, guid: d9a03b3d794ea164999cd32e2b6fb8dc,
      type: 3}
  - enemy: {fileID: 8694673222302402802, guid: 37d945183ff5b884db4c9448663a7c99, type: 3}
    enemyTransform: {fileID: 3733747409765822361, guid: 066c75404b8454b46bd75413cf63f009,
      type: 3}
