%YAML 1.1
%TAG !u! tag:unity3d.com,2011:
--- !u!221 &22100000
AnimatorOverrideController:
  m_ObjectHideFlags: 0
  m_CorrespondingSourceObject: {fileID: 0}
  m_PrefabInstance: {fileID: 0}
  m_PrefabAsset: {fileID: 0}
  m_Name: RifleStrangeController
  m_Controller: {fileID: 9100000, guid: 0bc5285da0cfa724d89abbf558f88f63, type: 2}
  m_Clips:
  - m_OriginalClip: {fileID: 7400000, guid: b173783282226d84bbd3107087bdc40d, type: 2}
    m_OverrideClip: {fileID: 7400000, guid: b173783282226d84bbd3107087bdc40d, type: 2}
  - m_OriginalClip: {fileID: 1827226128182048838, guid: 91f3df12ed5efa84e8d69ba0c3c94053,
      type: 3}
    m_OverrideClip: {fileID: 1827226128182048838, guid: 91f3df12ed5efa84e8d69ba0c3c94053,
      type: 3}
