%YAML 1.1
%TAG !u! tag:unity3d.com,2011:
--- !u!1001 &2944535008725009936
PrefabInstance:
  m_ObjectHideFlags: 0
  serializedVersion: 2
  m_Modification:
    m_TransformParent: {fileID: 0}
    m_Modifications:
    - target: {fileID: 100002, guid: c17698f595aa942cab4326f0ffaf25c2, type: 3}
      propertyPath: m_Name
      value: ProjectileNuovoNew_Final2
      objectReference: {fileID: 0}
    - target: {fileID: 400002, guid: c17698f595aa942cab4326f0ffaf25c2, type: 3}
      propertyPath: m_LocalPosition.x
      value: 0
      objectReference: {fileID: 0}
    - target: {fileID: 400002, guid: c17698f595aa942cab4326f0ffaf25c2, type: 3}
      propertyPath: m_LocalPosition.y
      value: 0
      objectReference: {fileID: 0}
    - target: {fileID: 400002, guid: c17698f595aa942cab4326f0ffaf25c2, type: 3}
      propertyPath: m_LocalPosition.z
      value: 0
      objectReference: {fileID: 0}
    - target: {fileID: 400002, guid: c17698f595aa942cab4326f0ffaf25c2, type: 3}
      propertyPath: m_LocalRotation.x
      value: -0
      objectReference: {fileID: 0}
    - target: {fileID: 400002, guid: c17698f595aa942cab4326f0ffaf25c2, type: 3}
      propertyPath: m_LocalRotation.y
      value: -0
      objectReference: {fileID: 0}
    - target: {fileID: 400002, guid: c17698f595aa942cab4326f0ffaf25c2, type: 3}
      propertyPath: m_LocalRotation.z
      value: -0
      objectReference: {fileID: 0}
    - target: {fileID: 400002, guid: c17698f595aa942cab4326f0ffaf25c2, type: 3}
      propertyPath: m_LocalRotation.w
      value: 1
      objectReference: {fileID: 0}
    - target: {fileID: 400002, guid: c17698f595aa942cab4326f0ffaf25c2, type: 3}
      propertyPath: m_RootOrder
      value: 0
      objectReference: {fileID: 0}
    - target: {fileID: 400002, guid: c17698f595aa942cab4326f0ffaf25c2, type: 3}
      propertyPath: m_LocalEulerAnglesHint.x
      value: 0
      objectReference: {fileID: 0}
    - target: {fileID: 400002, guid: c17698f595aa942cab4326f0ffaf25c2, type: 3}
      propertyPath: m_LocalEulerAnglesHint.y
      value: 0
      objectReference: {fileID: 0}
    - target: {fileID: 400002, guid: c17698f595aa942cab4326f0ffaf25c2, type: 3}
      propertyPath: m_LocalEulerAnglesHint.z
      value: 0
      objectReference: {fileID: 0}
    - target: {fileID: 19800000, guid: c17698f595aa942cab4326f0ffaf25c2, type: 3}
      propertyPath: EmissionModule.rateOverTime.scalar
      value: 50
      objectReference: {fileID: 0}
    - target: {fileID: 19800000, guid: c17698f595aa942cab4326f0ffaf25c2, type: 3}
      propertyPath: moveWithTransform
      value: 0
      objectReference: {fileID: 0}
    - target: {fileID: 19800000, guid: c17698f595aa942cab4326f0ffaf25c2, type: 3}
      propertyPath: InitialModule.startSize.scalar
      value: 1
      objectReference: {fileID: 0}
    - target: {fileID: 19800000, guid: c17698f595aa942cab4326f0ffaf25c2, type: 3}
      propertyPath: InitialModule.startColor.maxColor.r
      value: 1
      objectReference: {fileID: 0}
    - target: {fileID: 19800000, guid: c17698f595aa942cab4326f0ffaf25c2, type: 3}
      propertyPath: InitialModule.startColor.maxColor.g
      value: 1
      objectReference: {fileID: 0}
    - target: {fileID: 19800000, guid: c17698f595aa942cab4326f0ffaf25c2, type: 3}
      propertyPath: InitialModule.startColor.maxColor.b
      value: 1
      objectReference: {fileID: 0}
    - target: {fileID: 10800000, guid: c17698f595aa942cab4326f0ffaf25c2, type: 3}
      propertyPath: m_BoundingSphereOverride.w
      value: 1e-44
      objectReference: {fileID: 0}
    - target: {fileID: 10800000, guid: c17698f595aa942cab4326f0ffaf25c2, type: 3}
      propertyPath: m_BoundingSphereOverride.y
      value: 0
      objectReference: {fileID: 0}
    - target: {fileID: 10800000, guid: c17698f595aa942cab4326f0ffaf25c2, type: 3}
      propertyPath: m_BoundingSphereOverride.z
      value: 0
      objectReference: {fileID: 0}
    m_RemovedComponents: []
  m_SourcePrefab: {fileID: 100100000, guid: c17698f595aa942cab4326f0ffaf25c2, type: 3}
